// Jest Snapshot v1, https://goo.gl/fbAQLP

exports[`<Board /> should render and match the snapshot 1`] = `
<div
  className="game__board board"
>
  <div
    className="board__row row"
  >
    <Button
      classNames="row__cell"
      handleCallback={[MockFunction]}
      key="0"
      payload={
        Object {
          "squareIndex": 0,
        }
      }
    />
    <Button
      classNames="row__cell"
      handleCallback={[MockFunction]}
      key="1"
      payload={
        Object {
          "squareIndex": 1,
        }
      }
    />
    <Button
      classNames="row__cell"
      handleCallback={[MockFunction]}
      key="2"
      payload={
        Object {
          "squareIndex": 2,
        }
      }
    />
  </div>
  <div
    className="board__row row"
  >
    <Button
      classNames="row__cell"
      handleCallback={[MockFunction]}
      key="3"
      payload={
        Object {
          "squareIndex": 3,
        }
      }
    />
    <Button
      classNames="row__cell"
      handleCallback={[MockFunction]}
      key="4"
      payload={
        Object {
          "squareIndex": 4,
        }
      }
    />
    <Button
      classNames="row__cell"
      handleCallback={[MockFunction]}
      key="5"
      payload={
        Object {
          "squareIndex": 5,
        }
      }
    />
  </div>
  <div
    className="board__row row"
  >
    <Button
      classNames="row__cell"
      handleCallback={[MockFunction]}
      key="6"
      payload={
        Object {
          "squareIndex": 6,
        }
      }
    />
    <Button
      classNames="row__cell"
      handleCallback={[MockFunction]}
      key="7"
      payload={
        Object {
          "squareIndex": 7,
        }
      }
    />
    <Button
      classNames="row__cell"
      handleCallback={[MockFunction]}
      key="8"
      payload={
        Object {
          "squareIndex": 8,
        }
      }
    />
  </div>
</div>
`;
